-------------------------------------------------------------------------------
Test set: modelTests.BusConnectionModelTest
-------------------------------------------------------------------------------
Tests run: 7, Failures: 0, Errors: 0, Skipped: 0, Time elapsed: 1.984 sec
